{
  "page": 1,
  "total_results": 251,
  "total_pages": 13,
  "results": [
    {
      "popularity": 242.348,
      "vote_count": 8398,
      "video": false,
      "poster_path": "/iiZZdoQBEYBv6id8su7ImL0oCbD.jpg",
      "id": 324857,
      "adult": false,
      "backdrop_path": "/aUVCJ0HkcJIBrTJYPnTXta8h9Co.jpg",
      "original_language": "en",
      "original_title": "Spider-Man: Into the Spider-Verse",
      "genre_ids": [28, 12, 16, 878, 35],
      "title": "Spider-Man: Into the Spider-Verse",
      "vote_average": 8.4,
      "overview": "Miles Morales is juggling his life between being a high school student and being a spider-man. When Wilson \"Kingpin\" Fisk uses a super collider, others from across the Spider-Verse are transported to this dimension.",
      "release_date": "2018-12-06"
    },
    {
      "popularity": 49.97,
      "vote_count": 448,
      "video": false,
      "poster_path": "/yyPZJHUtOXvXn2p6C3l0R3ntPCX.jpg",
      "id": 9613,
      "adult": false,
      "backdrop_path": "/i07DYwAVPp1VF4ydwNSGlW814wB.jpg",
      "original_language": "en",
      "original_title": "Spider",
      "genre_ids": [18, 9648, 53],
      "title": "Spider",
      "vote_average": 6.5,
      "overview": "A mentally disturbed man takes residence in a halfway house. His mind gradually slips back into the realm created by his illness, where he replays a key part of his childhood.",
      "release_date": "2002-12-13"
    },
    {
      "popularity": 73.507,
      "vote_count": 12605,
      "video": false,
      "poster_path": "/gh4cZbhZxyTbgxQPxD0dOudNPTn.jpg",
      "id": 557,
      "adult": false,
      "backdrop_path": "/sWvxBXNtCOaGdtpKNLiOqmwb10N.jpg",
      "original_language": "en",
      "original_title": "Spider-Man",
      "genre_ids": [14, 28],
      "title": "Spider-Man",
      "vote_average": 7.2,
      "overview": "After being bitten by a genetically altered spider, nerdy high school student Peter Parker is endowed with amazing powers to become the Amazing superhero known as Spider-Man.",
      "release_date": "2002-05-01"
    },
    {
      "popularity": 123.68,
      "vote_count": 15167,
      "video": false,
      "poster_path": "/c24sv2weTHPsmDa7jEMN0m2P3RT.jpg",
      "id": 315635,
      "adult": false,
      "backdrop_path": "/vc8bCGjdVp0UbMNLzHnHSLRbBWQ.jpg",
      "original_language": "en",
      "original_title": "Spider-Man: Homecoming",
      "genre_ids": [28, 12, 878, 18],
      "title": "Spider-Man: Homecoming",
      "vote_average": 7.4,
      "overview": "Following the events of Captain America: Civil War, Peter Parker, with the help of his mentor Tony Stark, tries to balance his life as an ordinary high school student in Queens, New York City, with fighting crime as his superhero alter ego Spider-Man as a new threat, the Vulture, emerges.",
      "release_date": "2017-07-05"
    },
    {
      "popularity": 231.232,
      "vote_count": 8710,
      "video": false,
      "poster_path": "/4q2NNj4S5dG2RLF9CpXsej7yXl.jpg",
      "id": 429617,
      "adult": false,
      "backdrop_path": "/5myQbDzw3l8K9yofUXRJ4UTVgam.jpg",
      "original_language": "en",
      "original_title": "Spider-Man: Far from Home",
      "genre_ids": [28, 12, 878],
      "title": "Spider-Man: Far from Home",
      "vote_average": 7.5,
      "overview": "Peter Parker and his friends go on a summer trip to Europe. However, they will hardly be able to rest - Peter will have to agree to help Nick Fury uncover the mystery of creatures that cause natural disasters and destruction throughout the continent.",
      "release_date": "2019-06-28"
    },
    {
      "popularity": 56.846,
      "id": 569094,
      "video": false,
      "vote_count": 0,
      "vote_average": 0,
      "title": "Spider-Man: Into the Spider-Verse Sequel",
      "release_date": "2022-10-06",
      "original_language": "en",
      "original_title": "Spider-Man: Into the Spider-Verse Sequel",
      "genre_ids": [16, 28, 878, 35],
      "backdrop_path": "/ppehJ5HlIcqFpH9erwjwFGKdIoe.jpg",
      "adult": false,
      "overview": "The continuing story of Miles Morales and the many other Spider-People from different realities.",
      "poster_path": "/8ycplQbTU6DRRwiG95lQEpYkOVg.jpg"
    },
    {
      "popularity": 57.381,
      "vote_count": 9168,
      "video": false,
      "poster_path": "/2jLxKF73SAPkyhIWrnv67IH7kJ1.jpg",
      "id": 559,
      "adult": false,
      "backdrop_path": "/2dcxQJGlzlect7ffLkmX1mS9oUd.jpg",
      "original_language": "en",
      "original_title": "Spider-Man 3",
      "genre_ids": [14, 28, 12],
      "title": "Spider-Man 3",
      "vote_average": 6.2,
      "overview": "The seemingly invincible Spider-Man goes up against an all-new crop of villains—including the shape-shifting Sandman. While Spider-Man’s superpowers are altered by an alien organism, his alter ego, Peter Parker, deals with nemesis Eddie Brock and also gets caught up in a love triangle.",
      "release_date": "2007-05-01"
    },
    {
      "popularity": 63.865,
      "vote_count": 12323,
      "video": false,
      "poster_path": "/dQ8TOCYgP9pzQvSb1cmaalYqdb5.jpg",
      "id": 1930,
      "adult": false,
      "backdrop_path": "/eaJwlzDiMC5k4kp766NO8yXnt7U.jpg",
      "original_language": "en",
      "original_title": "The Amazing Spider-Man",
      "genre_ids": [28, 12, 14],
      "title": "The Amazing Spider-Man",
      "vote_average": 6.6,
      "overview": "Peter Parker is an outcast high schooler abandoned by his parents as a boy, leaving him to be raised by his Uncle Ben and Aunt May. Like most teenagers, Peter is trying to figure out who he is and how he got to be the person he is today. As Peter discovers a mysterious briefcase that belonged to his father, he begins a quest to understand his parents' disappearance – leading him directly to Oscorp and the lab of Dr. Curt Connors, his father's former partner. As Spider-Man is set on a collision course with Connors' alter ego, The Lizard, Peter will make life-altering choices to use his powers and shape his destiny to become a hero.",
      "release_date": "2012-06-23"
    },
    {
      "popularity": 46.877,
      "vote_count": 0,
      "video": false,
      "poster_path": "/4dS40km5rcd4udAGJheU18ZeSfi.jpg",
      "id": 634649,
      "adult": false,
      "backdrop_path": null,
      "original_language": "en",
      "original_title": "Untitled Spider-Man 3",
      "genre_ids": [28, 12, 878],
      "title": "Untitled Spider-Man 3",
      "vote_average": 0,
      "overview": "",
      "release_date": "2021-12-16"
    },
    {
      "popularity": 70.807,
      "vote_count": 8824,
      "video": false,
      "poster_path": "/bU7nTmvmy0h3VUP01v1T2imgH6N.jpg",
      "id": 102382,
      "adult": false,
      "backdrop_path": "/rF3kAqk08zGSvs8m6hRwsi28nHg.jpg",
      "original_language": "en",
      "original_title": "The Amazing Spider-Man 2",
      "genre_ids": [28, 12, 14],
      "title": "The Amazing Spider-Man 2",
      "vote_average": 6.4,
      "overview": "For Peter Parker, life is busy. Between taking out the bad guys as Spider-Man and spending time with the person he loves, Gwen Stacy, high school graduation cannot come quickly enough. Peter has not forgotten about the promise he made to Gwen’s father to protect her by staying away, but that is a promise he cannot keep. Things will change for Peter when a new villain, Electro, emerges, an old friend, Harry Osborn, returns, and Peter uncovers new clues about his past.",
      "release_date": "2014-04-16"
    },
    {
      "popularity": 25.227,
      "vote_count": 10192,
      "video": false,
      "poster_path": "/olxpyq9kJAZ2NU1siLshhhXEPR7.jpg",
      "id": 558,
      "adult": false,
      "backdrop_path": "/vqZnytUpDDAZI6JU7WtCqdq84L.jpg",
      "original_language": "en",
      "original_title": "Spider-Man 2",
      "genre_ids": [28, 12, 14],
      "title": "Spider-Man 2",
      "vote_average": 7.1,
      "overview": "Peter Parker is going through a major identity crisis. Burned out from being Spider-Man, he decides to shelve his superhero alter ego, which leaves the city suffering in the wake of carnage left by the evil Doc Ock. In the meantime, Parker still can't act on his feelings for Mary Jane Watson, a girl he's loved since childhood.",
      "release_date": "2004-06-25"
    },
    {
      "popularity": 25.936,
      "vote_count": 3,
      "video": false,
      "poster_path": "/q7NUczWrDwMyOdu4cBlmi3t5fWb.jpg",
      "id": 695176,
      "adult": false,
      "backdrop_path": null,
      "original_language": "en",
      "original_title": "Spider-Man: Stay Home",
      "genre_ids": [],
      "title": "Spider-Man: Stay Home",
      "vote_average": 6,
      "overview": "Spider-Man can defeat powerful foes like Vulture, Thanos and Mysterio but can he beat the lockdown blues during the Covid-19 crisis?",
      "release_date": "2020-04-15"
    },
    {
      "popularity": 14.47,
      "id": 225914,
      "video": false,
      "vote_count": 49,
      "vote_average": 5.3,
      "title": "The Amazing Spider-Man",
      "release_date": "1977-09-14",
      "original_language": "en",
      "original_title": "The Amazing Spider-Man",
      "genre_ids": [878, 28, 12, 14, 10770, 80],
      "backdrop_path": "/zlpZzccypkAYFZIyYLQcchl90ZC.jpg",
      "adult": false,
      "overview": "When an extortionist threatens to force a multi-suicide unless a huge ransom is paid, only Peter Parker can stop him with his new powers as Spider-Man.",
      "poster_path": "/nyXfGIkJQgKhugxMVql15URobtt.jpg"
    },
    {
      "popularity": 10.543,
      "vote_count": 1,
      "video": true,
      "poster_path": "/uy4Yf7DwGxtRNNR1stVP3H2jrX8.jpg",
      "id": 764954,
      "adult": false,
      "backdrop_path": null,
      "original_language": "es",
      "original_title": "Marvel's Spider-Man",
      "genre_ids": [],
      "title": "Marvel's Spider-Man",
      "vote_average": 8,
      "overview": "",
      "release_date": ""
    },
    {
      "popularity": 6.596,
      "vote_count": 87,
      "video": false,
      "poster_path": "/gDY3AZ7DY6OTrQIihrjCWvmjXHo.jpg",
      "id": 28504,
      "adult": false,
      "backdrop_path": "/icDYw7BphDSj4OUQH9meWvadphg.jpg",
      "original_language": "en",
      "original_title": "Spider Baby",
      "genre_ids": [35, 27],
      "title": "Spider Baby",
      "vote_average": 7.1,
      "overview": "The story follows a family of inbreeds who have been afflicted by a genetic disorder known as 'Merrye syndrome', named after the family in which the disorder developed. This malady causes its victims to enter a state of age regression that starts at the age of ten and continues throughout the remainder of the person's life, rendering them with the intelligence of a child. The final generation of the family has been entrusted to the care of the family chauffeur (Lon Chaney Jr), and all is well for these odd people until a greedy branch of the family decides that they want to relieve the family of its home. Mental illness has always, and will always be, a fascinating subject for horror movies as it probes into the unknown and Spider Baby makes best use of that fact.",
      "release_date": "1967-12-24"
    },
    {
      "popularity": 16.03,
      "vote_count": 28,
      "video": true,
      "poster_path": "/ilmsQLtthtcD8EU1k25cp0xFQ9a.jpg",
      "id": 50410,
      "adult": false,
      "backdrop_path": null,
      "original_language": "en",
      "original_title": "Spider-Man: The Venom Saga",
      "genre_ids": [16],
      "title": "Spider-Man: The Venom Saga",
      "vote_average": 7,
      "overview": "A space-shuttle crash-landing puts the famous web-slinger Spider-Man in contact with a living alien substance that bonds to his suit and enhances his super-powers. Unfortunately, the alien substance begins to change him and he feels the pull of evil, so discards the suit. The evil attaches itself to another host leading to an epic confrontation between good and evil.",
      "release_date": "1994-06-07"
    },
    {
      "popularity": 7.215,
      "vote_count": 152,
      "video": false,
      "poster_path": "/xVO2QHVTrF3CTS2KZWeqXpirJGk.jpg",
      "id": 166822,
      "adult": false,
      "backdrop_path": "/7uxk164J7x8s1uhaTg0S56IlvlS.jpg",
      "original_language": "en",
      "original_title": "Big Ass Spider!",
      "genre_ids": [878],
      "title": "Big Ass Spider!",
      "vote_average": 5.5,
      "overview": "When a giant alien spider escapes from a military lab and rampages across the city of Los Angeles, it is up to one clever exterminator and his security guard sidekick to kill the creature before the entire city is destroyed.",
      "release_date": "2013-10-17"
    },
    {
      "popularity": 10.795,
      "vote_count": 62,
      "video": false,
      "poster_path": "/mKZ9up7UvkBAjIe1Czo0wC7Q4ki.jpg",
      "id": 513413,
      "adult": false,
      "backdrop_path": "/pPWuqPZSUl81m1QHY7YPwQ2mm7P.jpg",
      "original_language": "en",
      "original_title": "Spider in the Web",
      "genre_ids": [53],
      "title": "Spider in the Web",
      "vote_average": 5.2,
      "overview": "A young operative is sent on a mission to follow an older agent who's behavior has come into question.",
      "release_date": "2019-04-20"
    },
    {
      "popularity": 11.127,
      "vote_count": 1140,
      "video": false,
      "poster_path": "/1YtsND7vSNymylnOSzgg3DdVFMB.jpg",
      "id": 2043,
      "adult": false,
      "backdrop_path": "/zKSWokNYMgI1skePqrN1C00Lmm6.jpg",
      "original_language": "en",
      "original_title": "Along Came a Spider",
      "genre_ids": [80, 9648, 53, 28],
      "title": "Along Came a Spider",
      "vote_average": 6.3,
      "overview": "When a teacher kidnaps a girl from a prestigious school, homicide detective, Alex Cross takes the case and teams up with young security agent, Jezzie Flannigan in hope of finding the girl and stopping the brutal psychopath.",
      "release_date": "2001-04-06"
    },
    {
      "popularity": 8.371,
      "vote_count": 7,
      "video": true,
      "poster_path": "/mEtyZBbVl0sx0y1blYuVDgeNLkr.jpg",
      "id": 270768,
      "adult": false,
      "backdrop_path": null,
      "original_language": "en",
      "original_title": "Daredevil vs. Spider-Man",
      "genre_ids": [28, 12, 16],
      "title": "Daredevil vs. Spider-Man",
      "vote_average": 7.4,
      "overview": "Spider-Man and Daredevil team up to fight Kingpin.",
      "release_date": "2003-02-11"
    }
  ]
}
